%YAML 1.1
%TAG !u! tag:unity3d.com,2011:
--- !u!114 &11400000
MonoBehaviour:
  m_ObjectHideFlags: 0
  m_CorrespondingSourceObject: {fileID: 0}
  m_PrefabInstance: {fileID: 0}
  m_PrefabAsset: {fileID: 0}
  m_GameObject: {fileID: 0}
  m_Enabled: 1
  m_EditorHideFlags: 0
  m_Script: {fileID: 11500000, guid: bbb281ee3bf0b054c82ac2347e9e782c, type: 3}
  m_Name: ShootEffects
  m_EditorClassIdentifier: 
  m_GroupName: ShootEffects
  m_Data:
    m_SerializedData: []
  m_GUID: e925a2d390de4eb44ba4c7f09ede582a
  m_SerializeEntries:
  - m_GUID: 231cb570e1536d64b81a61bd7aee44d3
    m_Address: BulletWoodEffect
    m_ReadOnly: 0
    m_SerializedLabels:
    - effects
    m_MainAsset: {fileID: 1000011190285628, guid: 231cb570e1536d64b81a61bd7aee44d3,
      type: 3}
    m_TargetAsset: {fileID: 1000011190285628, guid: 231cb570e1536d64b81a61bd7aee44d3,
      type: 3}
  - m_GUID: 518b7447857525845ad34d6c69db207e
    m_Address: ShootEffect
    m_ReadOnly: 0
    m_SerializedLabels:
    - effects
    m_MainAsset: {fileID: 1000010254994808, guid: 518b7447857525845ad34d6c69db207e,
      type: 3}
    m_TargetAsset: {fileID: 1000010254994808, guid: 518b7447857525845ad34d6c69db207e,
      type: 3}
  - m_GUID: 623f7e4510430bb4ca66e97402db24de
    m_Address: BulletFleshBigEffect
    m_ReadOnly: 0
    m_SerializedLabels:
    - effects
    m_MainAsset: {fileID: 1000013169864706, guid: 623f7e4510430bb4ca66e97402db24de,
      type: 3}
    m_TargetAsset: {fileID: 1000013169864706, guid: 623f7e4510430bb4ca66e97402db24de,
      type: 3}
  - m_GUID: 91d6eb80bcba5504984c9324a150ab97
    m_Address: BulletStoneEffect
    m_ReadOnly: 0
    m_SerializedLabels:
    - effects
    m_MainAsset: {fileID: 1000010844420130, guid: 91d6eb80bcba5504984c9324a150ab97,
      type: 3}
    m_TargetAsset: {fileID: 1000010844420130, guid: 91d6eb80bcba5504984c9324a150ab97,
      type: 3}
  - m_GUID: aa3350cf88877814daa9e4a7f6b7c303
    m_Address: BulletMetalEffect
    m_ReadOnly: 0
    m_SerializedLabels:
    - effects
    m_MainAsset: {fileID: 1000010355441670, guid: aa3350cf88877814daa9e4a7f6b7c303,
      type: 3}
    m_TargetAsset: {fileID: 1000010355441670, guid: aa3350cf88877814daa9e4a7f6b7c303,
      type: 3}
  - m_GUID: d46dccd2b73152d4996353d08b74c328
    m_Address: BulletSandEffect
    m_ReadOnly: 0
    m_SerializedLabels:
    - effects
    m_MainAsset: {fileID: 1000012142692022, guid: d46dccd2b73152d4996353d08b74c328,
      type: 3}
    m_TargetAsset: {fileID: 1000012142692022, guid: d46dccd2b73152d4996353d08b74c328,
      type: 3}
  - m_GUID: ed02564aec00eb744a82775b24e0b5a0
    m_Address: BulletFleshSmallEffect
    m_ReadOnly: 0
    m_SerializedLabels:
    - effects
    m_MainAsset: {fileID: 1000010191825552, guid: ed02564aec00eb744a82775b24e0b5a0,
      type: 3}
    m_TargetAsset: {fileID: 1000010191825552, guid: ed02564aec00eb744a82775b24e0b5a0,
      type: 3}
  m_ReadOnly: 0
  m_Settings: {fileID: 11400000, guid: 41ca3bb91d6587c409e12e006e3c5f2b, type: 2}
  m_SchemaSet:
    m_Schemas:
    - {fileID: 11400000, guid: a452d9dd843882b46830cab7059608ba, type: 2}
    - {fileID: 11400000, guid: a77e365e28e84ca4e805d6761afd870a, type: 2}
